CIGAR Visualization • utilitarian
…
Results in a long table of tidy data showing start and end positions of the operations along with their English translations.

Due to the facetting of CIGAR visualizations on Reference names (RNAME) it is wise to group them together if the organism is what matters. For example in the case of the human genome vs sars coronavirus grouping all the human chromosomes together is useful.

sam %>% 
  mutate(RNAME = case_when(RNAME == "MN908947.3" ~ "hcov",
                           RNAME == "*" ~ "unmapped",
                           TRUE ~ "human")) %>% 
  tidy_cigar()

toy.tc <- tidy_cigar(toy)

toy.tc
#> # A tibble: 31 x 7
#> # Groups:   QNAME, RNAME [10]
#>    QNAME RNAME  MAPQ CIGARstart CIGARend operation Operation
#>    <chr> <chr> <dbl>      <dbl>    <dbl> <chr>     <chr>    
#>  1 r001  ref      30          1        8 M         Match    
#>  2 r001  ref      30          8       12 I         Insertion
#>  3 r001  ref      30         12       16 M         Match    
#>  4 r001  ref      30         16       17 D         Deletion 
#>  5 r001  ref      30         17       20 M         Match    
#>  6 r001  ref      30         20       29 M         Match    
#>  7 r002  ref      30          1        1 S         Soft Clip
#>  8 r002  ref      30          1        3 I         Insertion
#>  9 r002  ref      30          3        9 M         Match    
#> 10 r002  ref      30          9       10 P         Padding  
#> # ... with 21 more rows
…
